{
  "definitions": {},
  "$schema": "http://json-schema.org/draft-07/schema#",
  "$id": "http://example.com/root.json",
  "type": "array",
  "title": "The Root Schema",
  "items": {
    "$id": "#/items",
    "type": "object",
    "title": "The Items Schema",
    "required": [
      "computerNumber",
      "computerName",
      "origin",
      "price",
      "critical",
      "ports",
      "types"
    ],
    "properties": {
      "computerNumber": {
        "$id": "#/items/properties/computerNumber",
        "type": "integer",
        "title": "The Computer Number Schema",
        "default": 1,
        "minimum": 1
      },
      "computerName": {
        "$id": "#/items/properties/computerName",
        "type": "string",
        "title": "The Computer Name Schema"
      },
      "origin": {
        "$id": "#/items/properties/origin",
        "type": "string",
        "title": "The Origin Schema"
      },
      "price": {
        "$id": "#/items/properties/price",
        "type": "integer",
        "title": "The Price Schema",
        "default": 0,
        "minimum": 0,
        "examples": [
          215
        ]
      },
      "critical": {
        "$id": "#/items/properties/critical",
        "type": "boolean",
        "title": "The Critical Schema",
        "default": false
      },
      "ports": {
        "$id": "#/items/properties/ports",
        "type": "object",
        "title": "The Ports Schema",
        "required": [
          "usbPort",
          "comPort",
          "lptPort"
        ],
        "properties": {
          "usbPort": {
            "$id": "#/items/properties/ports/properties/usbPort",
            "type": "boolean",
            "title": "The Usb Port Schema",
            "default": false
          },
          "comPort": {
            "$id": "#/items/properties/ports/properties/comPort",
            "type": "boolean",
            "title": "The Com Port Schema",
            "default": false
          },
          "lptPort": {
            "$id": "#/items/properties/ports/properties/lptPort",
            "type": "boolean",
            "title": "The LPT port Schema",
            "default": false
          }
        }
      },
      "types": {
        "$id": "#/items/properties/types",
        "type": "object",
        "title": "The Types Schema",
        "required": [
          "periphery",
          "energyConsumption",
          "cooler",
          "componentsGroup"
        ],
        "properties": {
          "periphery": {
            "$id": "#/items/properties/types/properties/periphery",
            "type": "boolean",
            "title": "The Periphery Schema",
            "default": false
          },
          "energyConsumption": {
            "$id": "#/items/properties/types/properties/energyConsumption",
            "type": "integer",
            "title": "The Energy consumption Schema",
            "minimum": 25,
            "default": 25
          },
          "cooler": {
            "$id": "#/items/properties/types/properties/cooler",
            "type": "boolean",
            "title": "The Cooler Schema",
            "default": false
          },
          "componentsGroup": {
            "$id": "#/items/properties/types/properties/componentsGroup",
            "type": "object",
            "title": "The Components group Schema",
            "required": [
              "processor",
              "ram",
              "videoCard",
              "motherBoard"
            ],
            "properties": {
              "processor": {
                "$id": "#/items/properties/types/properties/componentsGroup/properties/processor",
                "type": "string",
                "title": "The Processor Schema"
              },
              "ram": {
                "$id": "#/items/properties/types/properties/componentsGroup/properties/ram",
                "type": "integer",
                "title": "The Ram Schema",
                "minimum": 4,
                "default": 4
              },
              "videoCard": {
                "$id": "#/items/properties/types/properties/componentsGroup/properties/videoCard",
                "type": "string",
                "title": "The Videocard Schema"
              },
              "motherBoard": {
                "$id": "#/items/properties/types/properties/componentsGroup/properties/motherBoard",
                "type": "string",
                "title": "The Motherboard Schema"
              }
            }
          }
        }
      }
    }
  }
}